// Jest Snapshot v1, https://goo.gl/fbAQLP

exports[`Link: paste link and add text, paste link into list for comment editor 1`] = `
Object {
  "content": Array [
    Object {
      "content": Array [
        Object {
          "marks": Array [
            Object {
              "attrs": Object {
                "__confluenceMetadata": null,
                "href": "https://www.atlassian.com",
              },
              "type": "link",
            },
          ],
          "text": "https://www.atlassian.com",
          "type": "text",
        },
        Object {
          "text": "  .",
          "type": "text",
        },
      ],
      "type": "paragraph",
    },
    Object {
      "content": Array [
        Object {
          "content": Array [
            Object {
              "content": Array [
                Object {
                  "marks": Array [
                    Object {
                      "attrs": Object {
                        "__confluenceMetadata": null,
                        "href": "https://www.atlassian.com",
                      },
                      "type": "link",
                    },
                  ],
                  "text": "https://www.atlassian.com",
                  "type": "text",
                },
                Object {
                  "text": "  ",
                  "type": "text",
                },
              ],
              "type": "paragraph",
            },
          ],
          "type": "listItem",
        },
      ],
      "type": "bulletList",
    },
    Object {
      "type": "paragraph",
    },
  ],
  "type": "doc",
}
`;

exports[`Link: paste link and add text, paste link into list for fullpage editor 1`] = `
Object {
  "content": Array [
    Object {
      "content": Array [
        Object {
          "marks": Array [
            Object {
              "attrs": Object {
                "__confluenceMetadata": null,
                "href": "https://www.atlassian.com",
              },
              "type": "link",
            },
          ],
          "text": "https://www.atlassian.com",
          "type": "text",
        },
        Object {
          "text": "  .",
          "type": "text",
        },
      ],
      "type": "paragraph",
    },
    Object {
      "content": Array [
        Object {
          "content": Array [
            Object {
              "content": Array [
                Object {
                  "marks": Array [
                    Object {
                      "attrs": Object {
                        "__confluenceMetadata": null,
                        "href": "https://www.atlassian.com",
                      },
                      "type": "link",
                    },
                  ],
                  "text": "https://www.atlassian.com",
                  "type": "text",
                },
                Object {
                  "text": "  ",
                  "type": "text",
                },
              ],
              "type": "paragraph",
            },
          ],
          "type": "listItem",
        },
      ],
      "type": "bulletList",
    },
  ],
  "type": "doc",
}
`;
